{
  "playlists": {
    "href": "https://api.spotify.com/v1/browse/categories/0JQ5DAqbMKFRY5ok2pxXJ0/playlists?country=NL&offset=0&limit=20",
    "items": [
      {
        "collaborative": false,
        "description": "Lekker  eten en lang natafelen? Daar hoort muziek bij.",
        "external_urls": {
          "spotify": "https://open.spotify.com/playlist/37i9dQZF1DX7yhuKT9G4qk"
        },
        "href": "https://api.spotify.com/v1/playlists/37i9dQZF1DX7yhuKT9G4qk",
        "id": "37i9dQZF1DX7yhuKT9G4qk",
        "images": [
          {
            "height": null,
            "url": "https://i.scdn.co/image/ab67706f0000000343319faa9428405f3312b588",
            "width": null
          }
        ],
        "name": "eten met vrienden",
        "owner": {
          "display_name": "Spotify",
          "external_urls": {
            "spotify": "https://open.spotify.com/user/spotify"
          },
          "href": "https://api.spotify.com/v1/users/spotify",
          "id": "spotify",
          "type": "user",
          "uri": "spotify:user:spotify"
        },
        "primary_color": null,
        "public": null,
        "snapshot_id": "MTcwMTY5Njk3NywwMDAwMDAwMDkyY2JjZDA1MjA2YTBmNzMxMmFlNGI0YzRhMjg0ZWZl",
        "tracks": {
          "href": "https://api.spotify.com/v1/playlists/37i9dQZF1DX7yhuKT9G4qk/tracks",
          "total": 313
        },
        "type": "playlist",
        "uri": "spotify:playlist:37i9dQZF1DX7yhuKT9G4qk"
      },
      {
        "collaborative": false,
        "description": "From new retro to classic country blues, honky tonk, rockabilly, and more.",
        "external_urls": {
          "spotify": "https://open.spotify.com/playlist/37i9dQZF1DXbvE0SE0Cczh"
        },
        "href": "https://api.spotify.com/v1/playlists/37i9dQZF1DXbvE0SE0Cczh",
        "id": "37i9dQZF1DXbvE0SE0Cczh",
        "images": [
          {
            "height": null,
            "url": "https://i.scdn.co/image/ab67706f00000003b93c270883619dde61725fc8",
            "width": null
          }
        ],
        "name": "Jukebox Joint",
        "owner": {
          "display_name": "Spotify",
          "external_urls": {
            "spotify": "https://open.spotify.com/user/spotify"
          },
          "href": "https://api.spotify.com/v1/users/spotify",
          "id": "spotify",
          "type": "user",
          "uri": "spotify:user:spotify"
        },
        "primary_color": null,
        "public": null,
        "snapshot_id": "MTY4NjkxODgwMiwwMDAwMDAwMGUwNWRkNjY5N2UzM2Q4NzI4NzRiZmNhMGVmMzAyZTA5",
        "tracks": {
          "href": "https://api.spotify.com/v1/playlists/37i9dQZF1DXbvE0SE0Cczh/tracks",
          "total": 60
        },
        "type": "playlist",
        "uri": "spotify:playlist:37i9dQZF1DXbvE0SE0Cczh"
      },
      {
        "collaborative": false,
        "description": "Classic and new soul music for the perfect dinner.",
        "external_urls": {
          "spotify": "https://open.spotify.com/playlist/37i9dQZF1DWZheHO7xislj"
        },
        "href": "https://api.spotify.com/v1/playlists/37i9dQZF1DWZheHO7xislj",
        "id": "37i9dQZF1DWZheHO7xislj",
        "images": [
          {
            "height": null,
            "url": "https://i.scdn.co/image/ab67706f000000034b69d5ba7d5a9940475c3ef2",
            "width": null
          }
        ],
        "name": "Soulful Dinner",
        "owner": {
          "display_name": "Spotify",
          "external_urls": {
            "spotify": "https://open.spotify.com/user/spotify"
          },
          "href": "https://api.spotify.com/v1/users/spotify",
          "id": "spotify",
          "type": "user",
          "uri": "spotify:user:spotify"
        },
        "primary_color": null,
        "public": null,
        "snapshot_id": "MTcwMTY5NTYzMSwwMDAwMDAwMDQxMzBhMjM4NDZmYTY0MDI1Njk0MjJiNzQzYzg5NTM4",
        "tracks": {
          "href": "https://api.spotify.com/v1/playlists/37i9dQZF1DWZheHO7xislj/tracks",
          "total": 200
        },
        "type": "playlist",
        "uri": "spotify:playlist:37i9dQZF1DWZheHO7xislj"
      },
      {
        "collaborative": false,
        "description": "Cold beer. Hot wings. Great rock. ",
        "external_urls": {
          "spotify": "https://open.spotify.com/playlist/37i9dQZF1DXauOWFg72pbl"
        },
        "href": "https://api.spotify.com/v1/playlists/37i9dQZF1DXauOWFg72pbl",
        "id": "37i9dQZF1DXauOWFg72pbl",
        "images": [
          {
            "height": null,
            "url": "https://i.scdn.co/image/ab67706f000000034b04e77913de1fc2a4b819df",
            "width": null
          }
        ],
        "name": "Beer & Wings",
        "owner": {
          "display_name": "Spotify",
          "external_urls": {
            "spotify": "https://open.spotify.com/user/spotify"
          },
          "href": "https://api.spotify.com/v1/users/spotify",
          "id": "spotify",
          "type": "user",
          "uri": "spotify:user:spotify"
        },
        "primary_color": null,
        "public": null,
        "snapshot_id": "MTY5NjM1NjkyNSwwMDAwMDAwMGE0ZDEzMDkyNjViZTZmNWQ5OWRmZTg1MzVjMWJiZjY0",
        "tracks": {
          "href": "https://api.spotify.com/v1/playlists/37i9dQZF1DXauOWFg72pbl/tracks",
          "total": 100
        },
        "type": "playlist",
        "uri": "spotify:playlist:37i9dQZF1DXauOWFg72pbl"
      },
      {
        "collaborative": false,
        "description": "An uplifting yet tasteful dinner playlist with a guaranteed feel good vibe.",
        "external_urls": {
          "spotify": "https://open.spotify.com/playlist/37i9dQZF1DXbm6HfkbMtFZ"
        },
        "href": "https://api.spotify.com/v1/playlists/37i9dQZF1DXbm6HfkbMtFZ",
        "id": "37i9dQZF1DXbm6HfkbMtFZ",
        "images": [
          {
            "height": null,
            "url": "https://i.scdn.co/image/ab67706f000000032ba865eb4204be02ce3e8e09",
            "width": null
          }
        ],
        "name": "Feel Good Dinner",
        "owner": {
          "display_name": "Spotify",
          "external_urls": {
            "spotify": "https://open.spotify.com/user/spotify"
          },
          "href": "https://api.spotify.com/v1/users/spotify",
          "id": "spotify",
          "type": "user",
          "uri": "spotify:user:spotify"
        },
        "primary_color": null,
        "public": null,
        "snapshot_id": "MTcwMjMwNzM4OCwwMDAwMDAwMDhhZjNmZjdiYWRkZDM1NjMxOWM0YTc5M2I3ZmQxMjIw",
        "tracks": {
          "href": "https://api.spotify.com/v1/playlists/37i9dQZF1DXbm6HfkbMtFZ/tracks",
          "total": 115
        },
        "type": "playlist",
        "uri": "spotify:playlist:37i9dQZF1DXbm6HfkbMtFZ"
      },
      {
        "collaborative": false,
        "description": "Instrumental Jazz to set the mood for a relaxed evening.",
        "external_urls": {
          "spotify": "https://open.spotify.com/playlist/37i9dQZF1DWTALrdBtcXjw"
        },
        "href": "https://api.spotify.com/v1/playlists/37i9dQZF1DWTALrdBtcXjw",
        "id": "37i9dQZF1DWTALrdBtcXjw",
        "images": [
          {
            "height": null,
            "url": "https://i.scdn.co/image/ab67706f000000034311976b3775ca3ab337366c",
            "width": null
          }
        ],
        "name": "Jazzy Dinner",
        "owner": {
          "display_name": "Spotify",
          "external_urls": {
            "spotify": "https://open.spotify.com/user/spotify"
          },
          "href": "https://api.spotify.com/v1/users/spotify",
          "id": "spotify",
          "type": "user",
          "uri": "spotify:user:spotify"
        },
        "primary_color": null,
        "public": null,
        "snapshot_id": "MTcwMjU0NTMzMSwwMDAwMDAwMGEzOTk3N2FmNzViZDlmNzM2ZGM4ZDQwMmJhZGFiN2Zk",
        "tracks": {
          "href": "https://api.spotify.com/v1/playlists/37i9dQZF1DWTALrdBtcXjw/tracks",
          "total": 150
        },
        "type": "playlist",
        "uri": "spotify:playlist:37i9dQZF1DWTALrdBtcXjw"
      },
      {
        "collaborative": false,
        "description": "Sultry house and mellow beats to accompany your cocktail drinks.",
        "external_urls": {
          "spotify": "https://open.spotify.com/playlist/37i9dQZF1DX6syac0fWYdV"
        },
        "href": "https://api.spotify.com/v1/playlists/37i9dQZF1DX6syac0fWYdV",
        "id": "37i9dQZF1DX6syac0fWYdV",
        "images": [
          {
            "height": null,
            "url": "https://i.scdn.co/image/ab67706f00000003a9daf47636eec9303a28bcfb",
            "width": null
          }
        ],
        "name": "Cocktail Lounge",
        "owner": {
          "display_name": "Spotify",
          "external_urls": {
            "spotify": "https://open.spotify.com/user/spotify"
          },
          "href": "https://api.spotify.com/v1/users/spotify",
          "id": "spotify",
          "type": "user",
          "uri": "spotify:user:spotify"
        },
        "primary_color": null,
        "public": null,
        "snapshot_id": "MTcwMTQ1Mjc5MywwMDAwMDAwMDkwZTdkYTYzMjllMjUzMDA5M2Q2NzYwMWYyMjFiYWVk",
        "tracks": {
          "href": "https://api.spotify.com/v1/playlists/37i9dQZF1DX6syac0fWYdV/tracks",
          "total": 186
        },
        "type": "playlist",
        "uri": "spotify:playlist:37i9dQZF1DX6syac0fWYdV"
      },
      {
        "collaborative": false,
        "description": "Take yourself to Havana with some Cuban Salsa and Café favourites.",
        "external_urls": {
          "spotify": "https://open.spotify.com/playlist/37i9dQZF1DWZLN2cXno63R"
        },
        "href": "https://api.spotify.com/v1/playlists/37i9dQZF1DWZLN2cXno63R",
        "id": "37i9dQZF1DWZLN2cXno63R",
        "images": [
          {
            "height": null,
            "url": "https://i.scdn.co/image/ab67706f00000003d142d7feb73b11db237b11e8",
            "width": null
          }
        ],
        "name": "Café Cubano",
        "owner": {
          "display_name": "Spotify",
          "external_urls": {
            "spotify": "https://open.spotify.com/user/spotify"
          },
          "href": "https://api.spotify.com/v1/users/spotify",
          "id": "spotify",
          "type": "user",
          "uri": "spotify:user:spotify"
        },
        "primary_color": null,
        "public": null,
        "snapshot_id": "MTY4NjgzNTk3MywwMDAwMDAwMDRhYzdiNzI5NWE2NzgyNWZiMzkwYmMzY2U2NThhNzVk",
        "tracks": {
          "href": "https://api.spotify.com/v1/playlists/37i9dQZF1DWZLN2cXno63R/tracks",
          "total": 62
        },
        "type": "playlist",
        "uri": "spotify:playlist:37i9dQZF1DWZLN2cXno63R"
      },
      {
        "collaborative": false,
        "description": "La playlist à la cool pour accompagner votre dîner !",
        "external_urls": {
          "spotify": "https://open.spotify.com/playlist/37i9dQZF1DX915ogFalrko"
        },
        "href": "https://api.spotify.com/v1/playlists/37i9dQZF1DX915ogFalrko",
        "id": "37i9dQZF1DX915ogFalrko",
        "images": [
          {
            "height": null,
            "url": "https://i.scdn.co/image/ab67706f000000036ec804b14464d59cd9ddcd17",
            "width": null
          }
        ],
        "name": "Dîner entre amis",
        "owner": {
          "display_name": "Spotify",
          "external_urls": {
            "spotify": "https://open.spotify.com/user/spotify"
          },
          "href": "https://api.spotify.com/v1/users/spotify",
          "id": "spotify",
          "type": "user",
          "uri": "spotify:user:spotify"
        },
        "primary_color": null,
        "public": null,
        "snapshot_id": "MTcwMDgwNzkxMywwMDAwMDAwMDBiN2U1NTRkYzgzYjAwOTBlN2RkNWU3MGFmN2ZkMDg2",
        "tracks": {
          "href": "https://api.spotify.com/v1/playlists/37i9dQZF1DX915ogFalrko/tracks",
          "total": 100
        },
        "type": "playlist",
        "uri": "spotify:playlist:37i9dQZF1DX915ogFalrko"
      },
      {
        "collaborative": false,
        "description": "The perfect soundtrack to those long nights over dinner",
        "external_urls": {
          "spotify": "https://open.spotify.com/playlist/37i9dQZF1DX4xuWVBs4FgJ"
        },
        "href": "https://api.spotify.com/v1/playlists/37i9dQZF1DX4xuWVBs4FgJ",
        "id": "37i9dQZF1DX4xuWVBs4FgJ",
        "images": [
          {
            "height": null,
            "url": "https://i.scdn.co/image/ab67706f000000036e515187c071e45918e9f0de",
            "width": null
          }
        ],
        "name": "Dinner with Friends",
        "owner": {
          "display_name": "Spotify",
          "external_urls": {
            "spotify": "https://open.spotify.com/user/spotify"
          },
          "href": "https://api.spotify.com/v1/users/spotify",
          "id": "spotify",
          "type": "user",
          "uri": "spotify:user:spotify"
        },
        "primary_color": null,
        "public": null,
        "snapshot_id": "MTcwMDUwMDUwOSwwMDAwMDAwMGVkYmNjMDNiMDA5NTYxZGM2ZTIyZjFmODhiM2I2ZmE4",
        "tracks": {
          "href": "https://api.spotify.com/v1/playlists/37i9dQZF1DX4xuWVBs4FgJ/tracks",
          "total": 100
        },
        "type": "playlist",
        "uri": "spotify:playlist:37i9dQZF1DX4xuWVBs4FgJ"
      },
      {
        "collaborative": false,
        "description": "Lekker  eten en lang natafelen? Daar hoort muziek bij.",
        "external_urls": {
          "spotify": "https://open.spotify.com/playlist/37i9dQZF1DX7yhuKT9G4qk"
        },
        "href": "https://api.spotify.com/v1/playlists/37i9dQZF1DX7yhuKT9G4qk",
        "id": "37i9dQZF1DX7yhuKT9G4qk",
        "images": [
          {
            "height": null,
            "url": "https://i.scdn.co/image/ab67706f0000000343319faa9428405f3312b588",
            "width": null
          }
        ],
        "name": "eten met vrienden",
        "owner": {
          "display_name": "Spotify",
          "external_urls": {
            "spotify": "https://open.spotify.com/user/spotify"
          },
          "href": "https://api.spotify.com/v1/users/spotify",
          "id": "spotify",
          "type": "user",
          "uri": "spotify:user:spotify"
        },
        "primary_color": null,
        "public": null,
        "snapshot_id": "MTcwMTY5Njk3NywwMDAwMDAwMDkyY2JjZDA1MjA2YTBmNzMxMmFlNGI0YzRhMjg0ZWZl",
        "tracks": {
          "href": "https://api.spotify.com/v1/playlists/37i9dQZF1DX7yhuKT9G4qk/tracks",
          "total": 313
        },
        "type": "playlist",
        "uri": "spotify:playlist:37i9dQZF1DX7yhuKT9G4qk"
      },
      {
        "collaborative": false,
        "description": "Gettin' figgy with it, bana-na-na-nanana",
        "external_urls": {
          "spotify": "https://open.spotify.com/playlist/37i9dQZF1DX2FsCLsHeMrM"
        },
        "href": "https://api.spotify.com/v1/playlists/37i9dQZF1DX2FsCLsHeMrM",
        "id": "37i9dQZF1DX2FsCLsHeMrM",
        "images": [
          {
            "height": null,
            "url": "https://i.scdn.co/image/ab67706f000000038dc9fe0c14e5f34ad165e3c2",
            "width": null
          }
        ],
        "name": "Kitchen Swagger",
        "owner": {
          "display_name": "Spotify",
          "external_urls": {
            "spotify": "https://open.spotify.com/user/spotify"
          },
          "href": "https://api.spotify.com/v1/users/spotify",
          "id": "spotify",
          "type": "user",
          "uri": "spotify:user:spotify"
        },
        "primary_color": null,
        "public": null,
        "snapshot_id": "MTY5Nzc3NDQwMCwwMDAwMDAwMDE1NDNlZWNkZjAxZTNjYzhlZTM3YTNjY2Q5NDMzZjJm",
        "tracks": {
          "href": "https://api.spotify.com/v1/playlists/37i9dQZF1DX2FsCLsHeMrM/tracks",
          "total": 150
        },
        "type": "playlist",
        "uri": "spotify:playlist:37i9dQZF1DX2FsCLsHeMrM"
      },
      {
        "collaborative": false,
        "description": "An uplifting yet tasteful dinner playlist with a guaranteed feel good vibe.",
        "external_urls": {
          "spotify": "https://open.spotify.com/playlist/37i9dQZF1DXbm6HfkbMtFZ"
        },
        "href": "https://api.spotify.com/v1/playlists/37i9dQZF1DXbm6HfkbMtFZ",
        "id": "37i9dQZF1DXbm6HfkbMtFZ",
        "images": [
          {
            "height": null,
            "url": "https://i.scdn.co/image/ab67706f000000032ba865eb4204be02ce3e8e09",
            "width": null
          }
        ],
        "name": "Feel Good Dinner",
        "owner": {
          "display_name": "Spotify",
          "external_urls": {
            "spotify": "https://open.spotify.com/user/spotify"
          },
          "href": "https://api.spotify.com/v1/users/spotify",
          "id": "spotify",
          "type": "user",
          "uri": "spotify:user:spotify"
        },
        "primary_color": null,
        "public": null,
        "snapshot_id": "MTcwMjMwNzM4OCwwMDAwMDAwMDhhZjNmZjdiYWRkZDM1NjMxOWM0YTc5M2I3ZmQxMjIw",
        "tracks": {
          "href": "https://api.spotify.com/v1/playlists/37i9dQZF1DXbm6HfkbMtFZ/tracks",
          "total": 115
        },
        "type": "playlist",
        "uri": "spotify:playlist:37i9dQZF1DXbm6HfkbMtFZ"
      },
      {
        "collaborative": false,
        "description": "Classic and new soul music for the perfect dinner.",
        "external_urls": {
          "spotify": "https://open.spotify.com/playlist/37i9dQZF1DWZheHO7xislj"
        },
        "href": "https://api.spotify.com/v1/playlists/37i9dQZF1DWZheHO7xislj",
        "id": "37i9dQZF1DWZheHO7xislj",
        "images": [
          {
            "height": null,
            "url": "https://i.scdn.co/image/ab67706f000000034b69d5ba7d5a9940475c3ef2",
            "width": null
          }
        ],
        "name": "Soulful Dinner",
        "owner": {
          "display_name": "Spotify",
          "external_urls": {
            "spotify": "https://open.spotify.com/user/spotify"
          },
          "href": "https://api.spotify.com/v1/users/spotify",
          "id": "spotify",
          "type": "user",
          "uri": "spotify:user:spotify"
        },
        "primary_color": null,
        "public": null,
        "snapshot_id": "MTcwMTY5NTYzMSwwMDAwMDAwMDQxMzBhMjM4NDZmYTY0MDI1Njk0MjJiNzQzYzg5NTM4",
        "tracks": {
          "href": "https://api.spotify.com/v1/playlists/37i9dQZF1DWZheHO7xislj/tracks",
          "total": 200
        },
        "type": "playlist",
        "uri": "spotify:playlist:37i9dQZF1DWZheHO7xislj"
      },
      {
        "collaborative": false,
        "description": "Buon Appetito!",
        "external_urls": {
          "spotify": "https://open.spotify.com/playlist/37i9dQZF1DWT1R6bXL4dyW"
        },
        "href": "https://api.spotify.com/v1/playlists/37i9dQZF1DWT1R6bXL4dyW",
        "id": "37i9dQZF1DWT1R6bXL4dyW",
        "images": [
          {
            "height": null,
            "url": "https://i.scdn.co/image/ab67706f00000003c294a27b8c4fc98462b8b6a9",
            "width": null
          }
        ],
        "name": "The Perfect Italian Dinner",
        "owner": {
          "display_name": "Spotify",
          "external_urls": {
            "spotify": "https://open.spotify.com/user/spotify"
          },
          "href": "https://api.spotify.com/v1/users/spotify",
          "id": "spotify",
          "type": "user",
          "uri": "spotify:user:spotify"
        },
        "primary_color": null,
        "public": null,
        "snapshot_id": "MTY4NjkxODExNywwMDAwMDAwMGFhYmFmMzk1ZjE4YzMyY2NkYmQwZDRhODMzMjVhYTlk",
        "tracks": {
          "href": "https://api.spotify.com/v1/playlists/37i9dQZF1DWT1R6bXL4dyW/tracks",
          "total": 54
        },
        "type": "playlist",
        "uri": "spotify:playlist:37i9dQZF1DWT1R6bXL4dyW"
      },
      {
        "collaborative": false,
        "description": "As you prepare and settle into your romantic dinner, let us provide the soundtrack with these RnB/Soul love songs.",
        "external_urls": {
          "spotify": "https://open.spotify.com/playlist/37i9dQZF1DWTJNOeepZTGy"
        },
        "href": "https://api.spotify.com/v1/playlists/37i9dQZF1DWTJNOeepZTGy",
        "id": "37i9dQZF1DWTJNOeepZTGy",
        "images": [
          {
            "height": null,
            "url": "https://i.scdn.co/image/ab67706f00000003196ba4b8d065a628edeac3b0",
            "width": null
          }
        ],
        "name": "Wine & Dine",
        "owner": {
          "display_name": "Spotify",
          "external_urls": {
            "spotify": "https://open.spotify.com/user/spotify"
          },
          "href": "https://api.spotify.com/v1/users/spotify",
          "id": "spotify",
          "type": "user",
          "uri": "spotify:user:spotify"
        },
        "primary_color": null,
        "public": null,
        "snapshot_id": "MTY4NjgzNjY0MiwwMDAwMDAwMGRmZjU1ZWI0NjE2OGJjOGExNmQ4YzQyMGQyZjAwMWJl",
        "tracks": {
          "href": "https://api.spotify.com/v1/playlists/37i9dQZF1DWTJNOeepZTGy/tracks",
          "total": 50
        },
        "type": "playlist",
        "uri": "spotify:playlist:37i9dQZF1DWTJNOeepZTGy"
      },
      {
        "collaborative": false,
        "description": "Instrumental Jazz to set the mood for a relaxed evening.",
        "external_urls": {
          "spotify": "https://open.spotify.com/playlist/37i9dQZF1DWTALrdBtcXjw"
        },
        "href": "https://api.spotify.com/v1/playlists/37i9dQZF1DWTALrdBtcXjw",
        "id": "37i9dQZF1DWTALrdBtcXjw",
        "images": [
          {
            "height": null,
            "url": "https://i.scdn.co/image/ab67706f000000034311976b3775ca3ab337366c",
            "width": null
          }
        ],
        "name": "Jazzy Dinner",
        "owner": {
          "display_name": "Spotify",
          "external_urls": {
            "spotify": "https://open.spotify.com/user/spotify"
          },
          "href": "https://api.spotify.com/v1/users/spotify",
          "id": "spotify",
          "type": "user",
          "uri": "spotify:user:spotify"
        },
        "primary_color": null,
        "public": null,
        "snapshot_id": "MTcwMjU0NTMzMSwwMDAwMDAwMGEzOTk3N2FmNzViZDlmNzM2ZGM4ZDQwMmJhZGFiN2Zk",
        "tracks": {
          "href": "https://api.spotify.com/v1/playlists/37i9dQZF1DWTALrdBtcXjw/tracks",
          "total": 150
        },
        "type": "playlist",
        "uri": "spotify:playlist:37i9dQZF1DWTALrdBtcXjw"
      },
      {
        "collaborative": false,
        "description": "Chill & Bumpy",
        "external_urls": {
          "spotify": "https://open.spotify.com/playlist/37i9dQZF1DWVUxkQFrGCkK"
        },
        "href": "https://api.spotify.com/v1/playlists/37i9dQZF1DWVUxkQFrGCkK",
        "id": "37i9dQZF1DWVUxkQFrGCkK",
        "images": [
          {
            "height": null,
            "url": "https://i.scdn.co/image/ab67706f000000030795c45ffc1c5b0b48689b79",
            "width": null
          }
        ],
        "name": "Umami",
        "owner": {
          "display_name": "Spotify",
          "external_urls": {
            "spotify": "https://open.spotify.com/user/spotify"
          },
          "href": "https://api.spotify.com/v1/users/spotify",
          "id": "spotify",
          "type": "user",
          "uri": "spotify:user:spotify"
        },
        "primary_color": null,
        "public": null,
        "snapshot_id": "MTcwMjU5NDgwMCwwMDAwMDAwMGE1NTVkZmViNWNiYmQzNzRiYTQ2NjNiNzJlYmJjNzRl",
        "tracks": {
          "href": "https://api.spotify.com/v1/playlists/37i9dQZF1DWVUxkQFrGCkK/tracks",
          "total": 223
        },
        "type": "playlist",
        "uri": "spotify:playlist:37i9dQZF1DWVUxkQFrGCkK"
      },
      {
        "collaborative": false,
        "description": "Take yourself to Havana with some Cuban Salsa and Café favourites.",
        "external_urls": {
          "spotify": "https://open.spotify.com/playlist/37i9dQZF1DWZLN2cXno63R"
        },
        "href": "https://api.spotify.com/v1/playlists/37i9dQZF1DWZLN2cXno63R",
        "id": "37i9dQZF1DWZLN2cXno63R",
        "images": [
          {
            "height": null,
            "url": "https://i.scdn.co/image/ab67706f00000003d142d7feb73b11db237b11e8",
            "width": null
          }
        ],
        "name": "Café Cubano",
        "owner": {
          "display_name": "Spotify",
          "external_urls": {
            "spotify": "https://open.spotify.com/user/spotify"
          },
          "href": "https://api.spotify.com/v1/users/spotify",
          "id": "spotify",
          "type": "user",
          "uri": "spotify:user:spotify"
        },
        "primary_color": null,
        "public": null,
        "snapshot_id": "MTY4NjgzNTk3MywwMDAwMDAwMDRhYzdiNzI5NWE2NzgyNWZiMzkwYmMzY2U2NThhNzVk",
        "tracks": {
          "href": "https://api.spotify.com/v1/playlists/37i9dQZF1DWZLN2cXno63R/tracks",
          "total": 62
        },
        "type": "playlist",
        "uri": "spotify:playlist:37i9dQZF1DWZLN2cXno63R"
      },
      {
        "collaborative": false,
        "description": "Great food, good company and some soft music. ",
        "external_urls": {
          "spotify": "https://open.spotify.com/playlist/37i9dQZF1DXatMjChPKgBk"
        },
        "href": "https://api.spotify.com/v1/playlists/37i9dQZF1DXatMjChPKgBk",
        "id": "37i9dQZF1DXatMjChPKgBk",
        "images": [
          {
            "height": null,
            "url": "https://i.scdn.co/image/ab67706f00000003df69720bbead04d106b7182e",
            "width": null
          }
        ],
        "name": "Dinner Music",
        "owner": {
          "display_name": "Spotify",
          "external_urls": {
            "spotify": "https://open.spotify.com/user/spotify"
          },
          "href": "https://api.spotify.com/v1/users/spotify",
          "id": "spotify",
          "type": "user",
          "uri": "spotify:user:spotify"
        },
        "primary_color": null,
        "public": null,
        "snapshot_id": "MTY5Nzc3NDQwMCwwMDAwMDAwMDg2NzJkMGZlOGIyNjczM2E2MGUxMWM3NTkxZDZkYzYx",
        "tracks": {
          "href": "https://api.spotify.com/v1/playlists/37i9dQZF1DXatMjChPKgBk/tracks",
          "total": 100
        },
        "type": "playlist",
        "uri": "spotify:playlist:37i9dQZF1DXatMjChPKgBk"
      }
    ],
    "limit": 20,
    "next": "https://api.spotify.com/v1/browse/categories/0JQ5DAqbMKFRY5ok2pxXJ0/playlists?country=NL&offset=20&limit=20",
    "offset": 0,
    "previous": null,
    "total": 46
  }
}
