{
  "categories": {
    "href": "https://api.spotify.com/v1/browse/categories?offset=0&limit=20&locale=en-US,en;q%3D0.5",
    "items": [
      {
        "href": "https://api.spotify.com/v1/browse/categories/0JQ5DAt0tbjZptfcdMSKl3",
        "id": "0JQ5DAt0tbjZptfcdMSKl3",
        "icons": [
          {
            "height": 274,
            "url": "https://t.scdn.co/images/728ed47fc1674feb95f7ac20236eb6d7.jpeg",
            "width": 274
          }
        ],
        "name": "Made For You"
      },
      {
        "href": "https://api.spotify.com/v1/browse/categories/0JQ5DAqbMKFz6FAsUtgAab",
        "id": "0JQ5DAqbMKFz6FAsUtgAab",
        "icons": [
          {
            "height": 274,
            "url": "https://t.scdn.co/images/728ed47fc1674feb95f7ac20236eb6d7.jpeg",
            "width": 274
          }
        ],
        "name": "New Releases"
      },
      {
        "href": "https://api.spotify.com/v1/browse/categories/0JQ5DAqbMKFEC4WFtoNRpw",
        "id": "0JQ5DAqbMKFEC4WFtoNRpw",
        "icons": [
          {
            "height": 274,
            "url": "https://t.scdn.co/media/derived/pop-274x274_447148649685019f5e2a03a39e78ba52_0_0_274_274.jpg",
            "width": 274
          }
        ],
        "name": "Pop"
      },
      {
        "href": "https://api.spotify.com/v1/browse/categories/0JQ5DAqbMKFQ00XGBls6ym",
        "id": "0JQ5DAqbMKFQ00XGBls6ym",
        "icons": [
          {
            "height": 274,
            "url": "https://t.scdn.co/images/728ed47fc1674feb95f7ac20236eb6d7.jpeg",
            "width": 274
          }
        ],
        "name": "Hip-Hop"
      },
      {
        "href": "https://api.spotify.com/v1/browse/categories/0JQ5DAqbMKFHOzuVTgTizF",
        "id": "0JQ5DAqbMKFHOzuVTgTizF",
        "icons": [
          {
            "height": 274,
            "url": "https://t.scdn.co/media/derived/edm-274x274_0ef612604200a9c14995432994455a6d_0_0_274_274.jpg",
            "width": 274
          }
        ],
        "name": "Dance/Electronic"
      },
      {
        "href": "https://api.spotify.com/v1/browse/categories/0JQ5DAqbMKFCLroFGPFVr5",
        "id": "0JQ5DAqbMKFCLroFGPFVr5",
        "icons": [
          {
            "height": 274,
            "url": "https://t.scdn.co/images/970c289306e64c8782ecc84de5dea795.jpeg",
            "width": 274
          }
        ],
        "name": "Dutch music"
      },
      {
        "href": "https://api.spotify.com/v1/browse/categories/0JQ5DAudkNjCgYMM0TZXDw",
        "id": "0JQ5DAudkNjCgYMM0TZXDw",
        "icons": [
          {
            "height": 274,
            "url": "https://charts-images.scdn.co/spotify-charts-logos/music_charts_search_arrow_274x274.jpeg",
            "width": 274
          }
        ],
        "name": "Charts"
      },
      {
        "href": "https://api.spotify.com/v1/browse/categories/0JQ5DAqbMKFzHmL4tf05da",
        "id": "0JQ5DAqbMKFzHmL4tf05da",
        "icons": [
          {
            "height": 274,
            "url": "https://t.scdn.co/media/original/mood-274x274_976986a31ac8c49794cbdc7246fd5ad7_274x274.jpg",
            "width": 274
          }
        ],
        "name": "Mood"
      },
      {
        "href": "https://api.spotify.com/v1/browse/categories/0JQ5DAqbMKFCWjUTdzaG0e",
        "id": "0JQ5DAqbMKFCWjUTdzaG0e",
        "icons": [
          {
            "height": 274,
            "url": "https://t.scdn.co/images/fe06caf056474bc58862591cd60b57fc.jpeg",
            "width": 274
          }
        ],
        "name": "Indie"
      },
      {
        "href": "https://api.spotify.com/v1/browse/categories/0JQ5DAqbMKFIRybaNTYXXy",
        "id": "0JQ5DAqbMKFIRybaNTYXXy",
        "icons": [
          {
            "height": 274,
            "url": "https://t.scdn.co/images/728ed47fc1674feb95f7ac20236eb6d7.jpeg",
            "width": 274
          }
        ],
        "name": "In the car"
      },
      {
        "href": "https://api.spotify.com/v1/browse/categories/0JQ5DAqbMKFEZPnFQSFB1T",
        "id": "0JQ5DAqbMKFEZPnFQSFB1T",
        "icons": [
          {
            "height": 274,
            "url": "https://t.scdn.co/media/derived/r-b-274x274_fd56efa72f4f63764b011b68121581d8_0_0_274_274.jpg",
            "width": 274
          }
        ],
        "name": "R&B"
      },
      {
        "href": "https://api.spotify.com/v1/browse/categories/0JQ5DAtOnAEpjOgUKwXyxj",
        "id": "0JQ5DAtOnAEpjOgUKwXyxj",
        "icons": [
          {
            "height": 274,
            "url": "https://t.scdn.co/images/728ed47fc1674feb95f7ac20236eb6d7.jpeg",
            "width": 274
          }
        ],
        "name": "Discover"
      },
      {
        "href": "https://api.spotify.com/v1/browse/categories/0JQ5DAqbMKFA6SOHvT3gck",
        "id": "0JQ5DAqbMKFA6SOHvT3gck",
        "icons": [
          {
            "height": 274,
            "url": "https://t.scdn.co/images/7ee6530d5b3c4acc9a0957046bf11d63",
            "width": 274
          }
        ],
        "name": "Party"
      },
      {
        "href": "https://api.spotify.com/v1/browse/categories/0JQ5DAqbMKFAXlCG6QvYQ4",
        "id": "0JQ5DAqbMKFAXlCG6QvYQ4",
        "icons": [
          {
            "height": 274,
            "url": "https://t.scdn.co/media/links/workout-274x274.png",
            "width": 274
          }
        ],
        "name": "Workout"
      },
      {
        "href": "https://api.spotify.com/v1/browse/categories/0JQ5DAqbMKFGnsSfvg90Wo",
        "id": "0JQ5DAqbMKFGnsSfvg90Wo",
        "icons": [
          {
            "height": 274,
            "url": "https://t.scdn.co/images/c5495b9f0f694ffcb39c9217d4ed4375",
            "width": 274
          }
        ],
        "name": "GLOW"
      },
      {
        "href": "https://api.spotify.com/v1/browse/categories/0JQ5DAqbMKFNQ0fGp4byGU",
        "id": "0JQ5DAqbMKFNQ0fGp4byGU",
        "icons": [
          {
            "height": 274,
            "url": "https://t.scdn.co/images/b505b01bbe0e490cbe43b07f16212892.jpeg",
            "width": 274
          }
        ],
        "name": "Afro"
      },
      {
        "href": "https://api.spotify.com/v1/browse/categories/0JQ5DAqbMKFGvOw3O4nLAf",
        "id": "0JQ5DAqbMKFGvOw3O4nLAf",
        "icons": [
          {
            "height": 274,
            "url": "https://t.scdn.co/images/2078afd91e4d431eb19efc5bee5ab131.jpeg",
            "width": 274
          }
        ],
        "name": "K-pop"
      },
      {
        "href": "https://api.spotify.com/v1/browse/categories/0JQ5DAqbMKFIpEuaCnimBj",
        "id": "0JQ5DAqbMKFIpEuaCnimBj",
        "icons": [
          {
            "height": 274,
            "url": "https://t.scdn.co/media/derived/soul-274x274_266bc900b35dda8956380cffc73a4d8c_0_0_274_274.jpg",
            "width": 274
          }
        ],
        "name": "Soul"
      },
      {
        "href": "https://api.spotify.com/v1/browse/categories/0JQ5DAqbMKFFzDl7qN9Apr",
        "id": "0JQ5DAqbMKFFzDl7qN9Apr",
        "icons": [
          {
            "height": 274,
            "url": "https://t.scdn.co/media/derived/chill-274x274_4c46374f007813dd10b37e8d8fd35b4b_0_0_274_274.jpg",
            "width": 274
          }
        ],
        "name": "Chill"
      },
      {
        "href": "https://api.spotify.com/v1/browse/categories/0JQ5DAqbMKFDXXwE9BDJAr",
        "id": "0JQ5DAqbMKFDXXwE9BDJAr",
        "icons": [
          {
            "height": 274,
            "url": "https://t.scdn.co/media/derived/rock_9ce79e0a4ef901bbd10494f5b855d3cc_0_0_274_274.jpg",
            "width": 274
          }
        ],
        "name": "Rock"
      }
    ],
    "limit": 20,
    "next": "https://api.spotify.com/v1/browse/categories?offset=20&limit=20&locale=en-US,en;q%3D0.5",
    "offset": 0,
    "previous": null,
    "total": 56
  }
}
