{
  "items": [
    {
      "external_urls": {
        "spotify": "https://open.spotify.com/artist/74Yus6IHfa3tWZzXXAYtS2"
      },
      "followers": {
        "href": null,
        "total": 488
      },
      "genres": [],
      "href": "https://api.spotify.com/v1/artists/74Yus6IHfa3tWZzXXAYtS2",
      "id": "74Yus6IHfa3tWZzXXAYtS2",
      "images": [
        {
          "height": 640,
          "url": "https://i.scdn.co/image/ab6761610000e5ebf749f53f8bb5ffccf6105ce3",
          "width": 640
        },
        {
          "height": 320,
          "url": "https://i.scdn.co/image/ab67616100005174f749f53f8bb5ffccf6105ce3",
          "width": 320
        },
        {
          "height": 160,
          "url": "https://i.scdn.co/image/ab6761610000f178f749f53f8bb5ffccf6105ce3",
          "width": 160
        }
      ],
      "name": "Onkruid",
      "popularity": 7,
      "type": "artist",
      "uri": "spotify:artist:74Yus6IHfa3tWZzXXAYtS2"
    },
    {
      "external_urls": {
        "spotify": "https://open.spotify.com/artist/6s5ubAp65wXoTZefE01RNR"
      },
      "followers": {
        "href": null,
        "total": 805497
      },
      "genres": [],
      "href": "https://api.spotify.com/v1/artists/6s5ubAp65wXoTZefE01RNR",
      "id": "6s5ubAp65wXoTZefE01RNR",
      "images": [
        {
          "height": 640,
          "url": "https://i.scdn.co/image/ab6761610000e5eb8e750249623067fe3c557cf0",
          "width": 640
        },
        {
          "height": 320,
          "url": "https://i.scdn.co/image/ab676161000051748e750249623067fe3c557cf0",
          "width": 320
        },
        {
          "height": 160,
          "url": "https://i.scdn.co/image/ab6761610000f1788e750249623067fe3c557cf0",
          "width": 160
        }
      ],
      "name": "Joost",
      "popularity": 69,
      "type": "artist",
      "uri": "spotify:artist:6s5ubAp65wXoTZefE01RNR"
    },
    {
      "external_urls": {
        "spotify": "https://open.spotify.com/artist/7A0awCXkE1FtSU8B0qwOJQ"
      },
      "followers": {
        "href": null,
        "total": 856867
      },
      "genres": [
        "electronica",
        "future garage",
        "indie soul",
        "indietronica"
      ],
      "href": "https://api.spotify.com/v1/artists/7A0awCXkE1FtSU8B0qwOJQ",
      "id": "7A0awCXkE1FtSU8B0qwOJQ",
      "images": [
        {
          "height": 640,
          "url": "https://i.scdn.co/image/ab6761610000e5eb5b2ba819fa89b17d6ae81567",
          "width": 640
        },
        {
          "height": 320,
          "url": "https://i.scdn.co/image/ab676161000051745b2ba819fa89b17d6ae81567",
          "width": 320
        },
        {
          "height": 160,
          "url": "https://i.scdn.co/image/ab6761610000f1785b2ba819fa89b17d6ae81567",
          "width": 160
        }
      ],
      "name": "Jamie xx",
      "popularity": 70,
      "type": "artist",
      "uri": "spotify:artist:7A0awCXkE1FtSU8B0qwOJQ"
    },
    {
      "external_urls": {
        "spotify": "https://open.spotify.com/artist/6mS5GeFyhea6w9OKo8PO3p"
      },
      "followers": {
        "href": null,
        "total": 141270
      },
      "genres": [
        "dutch pop",
        "dutch rock",
        "lustrum",
        "piratenmuziek"
      ],
      "href": "https://api.spotify.com/v1/artists/6mS5GeFyhea6w9OKo8PO3p",
      "id": "6mS5GeFyhea6w9OKo8PO3p",
      "images": [
        {
          "height": 640,
          "url": "https://i.scdn.co/image/ab6761610000e5eb1844d25e43cbfb017a74ca77",
          "width": 640
        },
        {
          "height": 320,
          "url": "https://i.scdn.co/image/ab676161000051741844d25e43cbfb017a74ca77",
          "width": 320
        },
        {
          "height": 160,
          "url": "https://i.scdn.co/image/ab6761610000f1781844d25e43cbfb017a74ca77",
          "width": 160
        }
      ],
      "name": "Goldband",
      "popularity": 59,
      "type": "artist",
      "uri": "spotify:artist:6mS5GeFyhea6w9OKo8PO3p"
    },
    {
      "external_urls": {
        "spotify": "https://open.spotify.com/artist/4oLeXFyACqeem2VImYeBFe"
      },
      "followers": {
        "href": null,
        "total": 1711925
      },
      "genres": [
        "edm",
        "house",
        "stutter house"
      ],
      "href": "https://api.spotify.com/v1/artists/4oLeXFyACqeem2VImYeBFe",
      "id": "4oLeXFyACqeem2VImYeBFe",
      "images": [
        {
          "height": 640,
          "url": "https://i.scdn.co/image/ab6761610000e5eb2302e6ba3091fcbc6fd5bb54",
          "width": 640
        },
        {
          "height": 320,
          "url": "https://i.scdn.co/image/ab676161000051742302e6ba3091fcbc6fd5bb54",
          "width": 320
        },
        {
          "height": 160,
          "url": "https://i.scdn.co/image/ab6761610000f1782302e6ba3091fcbc6fd5bb54",
          "width": 160
        }
      ],
      "name": "Fred again..",
      "popularity": 81,
      "type": "artist",
      "uri": "spotify:artist:4oLeXFyACqeem2VImYeBFe"
    },
    {
      "external_urls": {
        "spotify": "https://open.spotify.com/artist/0bLxXoUrh0kANKQMWts8KV"
      },
      "followers": {
        "href": null,
        "total": 22087
      },
      "genres": [],
      "href": "https://api.spotify.com/v1/artists/0bLxXoUrh0kANKQMWts8KV",
      "id": "0bLxXoUrh0kANKQMWts8KV",
      "images": [
        {
          "height": 640,
          "url": "https://i.scdn.co/image/ab6761610000e5eb03c950304cd6fce910de8c59",
          "width": 640
        },
        {
          "height": 320,
          "url": "https://i.scdn.co/image/ab6761610000517403c950304cd6fce910de8c59",
          "width": 320
        },
        {
          "height": 160,
          "url": "https://i.scdn.co/image/ab6761610000f17803c950304cd6fce910de8c59",
          "width": 160
        }
      ],
      "name": "Felicia Lu",
      "popularity": 35,
      "type": "artist",
      "uri": "spotify:artist:0bLxXoUrh0kANKQMWts8KV"
    },
    {
      "external_urls": {
        "spotify": "https://open.spotify.com/artist/6QzMY3tnu0m56eKUnr4uCF"
      },
      "followers": {
        "href": null,
        "total": 166512
      },
      "genres": [
        "modern alternative pop"
      ],
      "href": "https://api.spotify.com/v1/artists/6QzMY3tnu0m56eKUnr4uCF",
      "id": "6QzMY3tnu0m56eKUnr4uCF",
      "images": [
        {
          "height": 640,
          "url": "https://i.scdn.co/image/ab6761610000e5eb7f3519b082ec961f35be7a44",
          "width": 640
        },
        {
          "height": 320,
          "url": "https://i.scdn.co/image/ab676161000051747f3519b082ec961f35be7a44",
          "width": 320
        },
        {
          "height": 160,
          "url": "https://i.scdn.co/image/ab6761610000f1787f3519b082ec961f35be7a44",
          "width": 160
        }
      ],
      "name": "Alfie Templeman",
      "popularity": 53,
      "type": "artist",
      "uri": "spotify:artist:6QzMY3tnu0m56eKUnr4uCF"
    },
    {
      "external_urls": {
        "spotify": "https://open.spotify.com/artist/0PCCGZ0wGLizHt2KZ7hhA2"
      },
      "followers": {
        "href": null,
        "total": 948532
      },
      "genres": [],
      "href": "https://api.spotify.com/v1/artists/0PCCGZ0wGLizHt2KZ7hhA2",
      "id": "0PCCGZ0wGLizHt2KZ7hhA2",
      "images": [
        {
          "height": 640,
          "url": "https://i.scdn.co/image/ab6761610000e5eb597f1c8c92c4a82734e3af43",
          "width": 640
        },
        {
          "height": 320,
          "url": "https://i.scdn.co/image/ab67616100005174597f1c8c92c4a82734e3af43",
          "width": 320
        },
        {
          "height": 160,
          "url": "https://i.scdn.co/image/ab6761610000f178597f1c8c92c4a82734e3af43",
          "width": 160
        }
      ],
      "name": "Artemas",
      "popularity": 80,
      "type": "artist",
      "uri": "spotify:artist:0PCCGZ0wGLizHt2KZ7hhA2"
    },
    {
      "external_urls": {
        "spotify": "https://open.spotify.com/artist/3X2DdnmoANw8Rg8luHyZQb"
      },
      "followers": {
        "href": null,
        "total": 126882
      },
      "genres": [],
      "href": "https://api.spotify.com/v1/artists/3X2DdnmoANw8Rg8luHyZQb",
      "id": "3X2DdnmoANw8Rg8luHyZQb",
      "images": [
        {
          "height": 640,
          "url": "https://i.scdn.co/image/ab6761610000e5ebef66595edf6f913e0f7c5b93",
          "width": 640
        },
        {
          "height": 320,
          "url": "https://i.scdn.co/image/ab67616100005174ef66595edf6f913e0f7c5b93",
          "width": 320
        },
        {
          "height": 160,
          "url": "https://i.scdn.co/image/ab6761610000f178ef66595edf6f913e0f7c5b93",
          "width": 160
        }
      ],
      "name": "Romy",
      "popularity": 62,
      "type": "artist",
      "uri": "spotify:artist:3X2DdnmoANw8Rg8luHyZQb"
    },
    {
      "external_urls": {
        "spotify": "https://open.spotify.com/artist/0Lwn2PjwIw7QaoN7gHyqCA"
      },
      "followers": {
        "href": null,
        "total": 4773
      },
      "genres": [
        "canadian electropop",
        "london on indie"
      ],
      "href": "https://api.spotify.com/v1/artists/0Lwn2PjwIw7QaoN7gHyqCA",
      "id": "0Lwn2PjwIw7QaoN7gHyqCA",
      "images": [
        {
          "height": 640,
          "url": "https://i.scdn.co/image/ab6761610000e5eb659cb7ca4d5e02f48a2ef9f0",
          "width": 640
        },
        {
          "height": 320,
          "url": "https://i.scdn.co/image/ab67616100005174659cb7ca4d5e02f48a2ef9f0",
          "width": 320
        },
        {
          "height": 160,
          "url": "https://i.scdn.co/image/ab6761610000f178659cb7ca4d5e02f48a2ef9f0",
          "width": 160
        }
      ],
      "name": "Wolf Saga",
      "popularity": 20,
      "type": "artist",
      "uri": "spotify:artist:0Lwn2PjwIw7QaoN7gHyqCA"
    },
    {
      "external_urls": {
        "spotify": "https://open.spotify.com/artist/7gP3bB2nilZXLfPHJhMdvc"
      },
      "followers": {
        "href": null,
        "total": 3840216
      },
      "genres": [
        "indietronica",
        "modern alternative rock",
        "modern rock",
        "rock"
      ],
      "href": "https://api.spotify.com/v1/artists/7gP3bB2nilZXLfPHJhMdvc",
      "id": "7gP3bB2nilZXLfPHJhMdvc",
      "images": [
        {
          "height": 640,
          "url": "https://i.scdn.co/image/ab6761610000e5eb22b8e662f0cfdddac8ab22bb",
          "width": 640
        },
        {
          "height": 320,
          "url": "https://i.scdn.co/image/ab6761610000517422b8e662f0cfdddac8ab22bb",
          "width": 320
        },
        {
          "height": 160,
          "url": "https://i.scdn.co/image/ab6761610000f17822b8e662f0cfdddac8ab22bb",
          "width": 160
        }
      ],
      "name": "Foster The People",
      "popularity": 75,
      "type": "artist",
      "uri": "spotify:artist:7gP3bB2nilZXLfPHJhMdvc"
    },
    {
      "external_urls": {
        "spotify": "https://open.spotify.com/artist/3hE8S8ohRErocpkY7uJW4a"
      },
      "followers": {
        "href": null,
        "total": 1312836
      },
      "genres": [
        "dutch metal",
        "gothic metal",
        "gothic symphonic metal",
        "symphonic metal"
      ],
      "href": "https://api.spotify.com/v1/artists/3hE8S8ohRErocpkY7uJW4a",
      "id": "3hE8S8ohRErocpkY7uJW4a",
      "images": [
        {
          "height": 640,
          "url": "https://i.scdn.co/image/ab6761610000e5ebd7fd83f3a54ab822936034b6",
          "width": 640
        },
        {
          "height": 320,
          "url": "https://i.scdn.co/image/ab67616100005174d7fd83f3a54ab822936034b6",
          "width": 320
        },
        {
          "height": 160,
          "url": "https://i.scdn.co/image/ab6761610000f178d7fd83f3a54ab822936034b6",
          "width": 160
        }
      ],
      "name": "Within Temptation",
      "popularity": 64,
      "type": "artist",
      "uri": "spotify:artist:3hE8S8ohRErocpkY7uJW4a"
    },
    {
      "external_urls": {
        "spotify": "https://open.spotify.com/artist/3jULn43a6xfzqleyeFjPIq"
      },
      "followers": {
        "href": null,
        "total": 29260
      },
      "genres": [
        "antiviral pop",
        "neo-industrial rock"
      ],
      "href": "https://api.spotify.com/v1/artists/3jULn43a6xfzqleyeFjPIq",
      "id": "3jULn43a6xfzqleyeFjPIq",
      "images": [
        {
          "height": 640,
          "url": "https://i.scdn.co/image/ab6761610000e5eb4c4e09e55e5b83bb9f35e3dc",
          "width": 640
        },
        {
          "height": 320,
          "url": "https://i.scdn.co/image/ab676161000051744c4e09e55e5b83bb9f35e3dc",
          "width": 320
        },
        {
          "height": 160,
          "url": "https://i.scdn.co/image/ab6761610000f1784c4e09e55e5b83bb9f35e3dc",
          "width": 160
        }
      ],
      "name": "Area 11",
      "popularity": 32,
      "type": "artist",
      "uri": "spotify:artist:3jULn43a6xfzqleyeFjPIq"
    },
    {
      "external_urls": {
        "spotify": "https://open.spotify.com/artist/2WBJQGf1bT1kxuoqziH5g4"
      },
      "followers": {
        "href": null,
        "total": 741463
      },
      "genres": [
        "deep house",
        "house"
      ],
      "href": "https://api.spotify.com/v1/artists/2WBJQGf1bT1kxuoqziH5g4",
      "id": "2WBJQGf1bT1kxuoqziH5g4",
      "images": [
        {
          "height": 640,
          "url": "https://i.scdn.co/image/ab6761610000e5ebbd1cb147996bda17ecc97dd7",
          "width": 640
        },
        {
          "height": 320,
          "url": "https://i.scdn.co/image/ab67616100005174bd1cb147996bda17ecc97dd7",
          "width": 320
        },
        {
          "height": 160,
          "url": "https://i.scdn.co/image/ab6761610000f178bd1cb147996bda17ecc97dd7",
          "width": 160
        }
      ],
      "name": "Purple Disco Machine",
      "popularity": 74,
      "type": "artist",
      "uri": "spotify:artist:2WBJQGf1bT1kxuoqziH5g4"
    },
    {
      "external_urls": {
        "spotify": "https://open.spotify.com/artist/6M2wZ9GZgrQXHCFfjv46we"
      },
      "followers": {
        "href": null,
        "total": 44768356
      },
      "genres": [
        "dance pop",
        "pop",
        "uk pop"
      ],
      "href": "https://api.spotify.com/v1/artists/6M2wZ9GZgrQXHCFfjv46we",
      "id": "6M2wZ9GZgrQXHCFfjv46we",
      "images": [
        {
          "height": 640,
          "url": "https://i.scdn.co/image/ab6761610000e5eb0c68f6c95232e716f0abee8d",
          "width": 640
        },
        {
          "height": 320,
          "url": "https://i.scdn.co/image/ab676161000051740c68f6c95232e716f0abee8d",
          "width": 320
        },
        {
          "height": 160,
          "url": "https://i.scdn.co/image/ab6761610000f1780c68f6c95232e716f0abee8d",
          "width": 160
        }
      ],
      "name": "Dua Lipa",
      "popularity": 88,
      "type": "artist",
      "uri": "spotify:artist:6M2wZ9GZgrQXHCFfjv46we"
    },
    {
      "external_urls": {
        "spotify": "https://open.spotify.com/artist/2Ndq6RparrhEoceel7LC4Z"
      },
      "followers": {
        "href": null,
        "total": 28307
      },
      "genres": [
        "gaming edm"
      ],
      "href": "https://api.spotify.com/v1/artists/2Ndq6RparrhEoceel7LC4Z",
      "id": "2Ndq6RparrhEoceel7LC4Z",
      "images": [
        {
          "height": 640,
          "url": "https://i.scdn.co/image/ab6761610000e5ebf44a22ddf0de309ddf0ae8a9",
          "width": 640
        },
        {
          "height": 320,
          "url": "https://i.scdn.co/image/ab67616100005174f44a22ddf0de309ddf0ae8a9",
          "width": 320
        },
        {
          "height": 160,
          "url": "https://i.scdn.co/image/ab6761610000f178f44a22ddf0de309ddf0ae8a9",
          "width": 160
        }
      ],
      "name": "Anna Yvette",
      "popularity": 46,
      "type": "artist",
      "uri": "spotify:artist:2Ndq6RparrhEoceel7LC4Z"
    },
    {
      "external_urls": {
        "spotify": "https://open.spotify.com/artist/3oKRxpszQKUjjaHz388fVA"
      },
      "followers": {
        "href": null,
        "total": 869953
      },
      "genres": [
        "aussietronica",
        "indie soul"
      ],
      "href": "https://api.spotify.com/v1/artists/3oKRxpszQKUjjaHz388fVA",
      "id": "3oKRxpszQKUjjaHz388fVA",
      "images": [
        {
          "height": 640,
          "url": "https://i.scdn.co/image/ab6761610000e5ebd178e3af6da2eef262630ee2",
          "width": 640
        },
        {
          "height": 320,
          "url": "https://i.scdn.co/image/ab67616100005174d178e3af6da2eef262630ee2",
          "width": 320
        },
        {
          "height": 160,
          "url": "https://i.scdn.co/image/ab6761610000f178d178e3af6da2eef262630ee2",
          "width": 160
        }
      ],
      "name": "Parcels",
      "popularity": 68,
      "type": "artist",
      "uri": "spotify:artist:3oKRxpszQKUjjaHz388fVA"
    },
    {
      "external_urls": {
        "spotify": "https://open.spotify.com/artist/0RwXnFrEoI8tltFvYpJgP6"
      },
      "followers": {
        "href": null,
        "total": 109805
      },
      "genres": [
        "australian electropop"
      ],
      "href": "https://api.spotify.com/v1/artists/0RwXnFrEoI8tltFvYpJgP6",
      "id": "0RwXnFrEoI8tltFvYpJgP6",
      "images": [
        {
          "height": 640,
          "url": "https://i.scdn.co/image/ab6761610000e5eb8cb8fe9483451962ad649d16",
          "width": 640
        },
        {
          "height": 320,
          "url": "https://i.scdn.co/image/ab676161000051748cb8fe9483451962ad649d16",
          "width": 320
        },
        {
          "height": 160,
          "url": "https://i.scdn.co/image/ab6761610000f1788cb8fe9483451962ad649d16",
          "width": 160
        }
      ],
      "name": "Confidence Man",
      "popularity": 55,
      "type": "artist",
      "uri": "spotify:artist:0RwXnFrEoI8tltFvYpJgP6"
    },
    {
      "external_urls": {
        "spotify": "https://open.spotify.com/artist/3PyJHH2wyfQK3WZrk9rpmP"
      },
      "followers": {
        "href": null,
        "total": 2375769
      },
      "genres": [
        "alt z",
        "escape room"
      ],
      "href": "https://api.spotify.com/v1/artists/3PyJHH2wyfQK3WZrk9rpmP",
      "id": "3PyJHH2wyfQK3WZrk9rpmP",
      "images": [
        {
          "height": 640,
          "url": "https://i.scdn.co/image/ab6761610000e5eb200914459687748118b36954",
          "width": 640
        },
        {
          "height": 320,
          "url": "https://i.scdn.co/image/ab67616100005174200914459687748118b36954",
          "width": 320
        },
        {
          "height": 160,
          "url": "https://i.scdn.co/image/ab6761610000f178200914459687748118b36954",
          "width": 160
        }
      ],
      "name": "Ashnikko",
      "popularity": 69,
      "type": "artist",
      "uri": "spotify:artist:3PyJHH2wyfQK3WZrk9rpmP"
    },
    {
      "external_urls": {
        "spotify": "https://open.spotify.com/artist/5nPOO9iTcrs9k6yFffPxjH"
      },
      "followers": {
        "href": null,
        "total": 929696
      },
      "genres": [
        "downtempo",
        "electronica",
        "indietronica",
        "neo-synthpop",
        "trip hop"
      ],
      "href": "https://api.spotify.com/v1/artists/5nPOO9iTcrs9k6yFffPxjH",
      "id": "5nPOO9iTcrs9k6yFffPxjH",
      "images": [
        {
          "height": 640,
          "url": "https://i.scdn.co/image/ab6761610000e5eb804f352e162347a18f6401fa",
          "width": 640
        },
        {
          "height": 320,
          "url": "https://i.scdn.co/image/ab67616100005174804f352e162347a18f6401fa",
          "width": 320
        },
        {
          "height": 160,
          "url": "https://i.scdn.co/image/ab6761610000f178804f352e162347a18f6401fa",
          "width": 160
        }
      ],
      "name": "Röyksopp",
      "popularity": 60,
      "type": "artist",
      "uri": "spotify:artist:5nPOO9iTcrs9k6yFffPxjH"
    }
  ],
  "total": 192,
  "limit": 20,
  "offset": 0,
  "href": "https://api.spotify.com/v1/me/top/artists?locale=en-US,en;q%3D0.5",
  "next": "https://api.spotify.com/v1/me/top/artists?offset=20&limit=20&locale=en-US,en;q%3D0.5",
  "previous": null
}
